{
  "uuid": "b556f93a-8183-44e5-b422-33252237a451",
  "lastMigration": 19,
  "name": "Audi informactions",
  "endpointPrefix": "",
  "latency": 0,
  "port": 3001,
  "hostname": "0.0.0.0",
  "routes": [
    {
      "uuid": "b7ad7fb8-659e-4877-96a7-b30d2c4f31fe",
      "documentation": "",
      "method": "get",
      "endpoint": "audi/information",
      "responses": [
        {
          "uuid": "47d7dc2e-27bd-4cc6-9149-4f4a57492b43",
          "body": "[\n    {\n        \"brand\": \"Audi\",\n        \"model\": \"A1\",\n        \"colour\": \"black\",\n        \"numberOfDoors\": \"4/5\"\n        \"bodyType\": \"sport\"\n        \"id\": 1\n    },\n    {\n        \"brand\": \"Audi\",\n        \"model\": \"A3\",\n        \"colour\": \"red\",\n        \"numberOfDoors\": \"2/3\"\n        \"bodyType\": \"sport\"\n        \"id\": 2\n    },\n    {\n        \"brand\": \"Audi\",\n        \"model\": \"A4\",\n        \"colour\": \"blue\",\n        \"numberOfDoors\": \"4/5\"\n        \"bodyType\": \"combi\"\n        \"id\": 3\n    },\n    {\n        \"brand\": \"Audi\",\n        \"model\": \"A5\",\n        \"colour\": \"yellow\",\n        \"numberOfDoors\": \"2\"\n        \"bodyType\": \"sport\"\n        \"id\": 4\n    },\n    {\n        \"brand\": \"Audi\",\n        \"model\": \"A6\",\n        \"colour\": \"black\",\n        \"numberOfDoors\": \"4\"\n        \"bodyType\": \"sedan\"\n        \"id\": 5\n    },\n    {\n        \"brand\": \"Audi\",\n        \"model\": \"A7\",\n        \"colour\": \"white\",\n        \"numberOfDoors\": \"4\"\n        \"bodyType\": \"sport\"\n        \"id\": 6\n    },\n    {\n        \"brand\": \"Audi\",\n        \"model\": \"A8\",\n        \"colour\": \"black\",\n        \"numberOfDoors\": \"4\"\n        \"bodyType\": \"sedan\"\n        \"id\": 7\n    },\n    {\n        \"brand\": \"Audi\",\n        \"model\": \"e-tron\",\n        \"colour\": \"black\",\n        \"numberOfDoors\": \"4\"\n        \"bodyType\": \"electric\"\n        \"id\": 8\n    }\n]",
          "latency": 0,
          "statusCode": 200,
          "label": "",
          "headers": [
            {
              "key": "Content-Type",
              "value": "application/json"
            }
          ],
          "filePath": "",
          "sendFileAsBody": false,
          "rules": [],
          "rulesOperator": "OR",
          "disableTemplating": false,
          "fallbackTo404": false
        }
      ],
      "enabled": true,
      "randomResponse": false,
      "sequentialResponse": false
    },
    {
      "uuid": "bd236cf0-02ab-49cd-889b-af4f81bc3618",
      "documentation": "",
      "method": "get",
      "endpoint": "audi/a1/information",
      "responses": [
        {
          "uuid": "1e626f1c-2986-43c5-a41b-6de1e2c00c48",
          "body": "{\n        \"brand\": \"Audi\",\n        \"model\": \"A1\",\n        \"colour\": \"black\",\n        \"numberOfDoors\": \"4/5\",\n        \"bodyType\": \"sport\",\n        \"id\": 1\n}",
          "latency": 0,
          "statusCode": 200,
          "label": "",
          "headers": [
            {
              "key": "Content-Type",
              "value": "application/json"
            }
          ],
          "filePath": "",
          "sendFileAsBody": false,
          "rules": [],
          "rulesOperator": "OR",
          "disableTemplating": false,
          "fallbackTo404": false
        }
      ],
      "enabled": true,
      "randomResponse": false,
      "sequentialResponse": false
    },
    {
      "uuid": "37c2a304-96db-470c-91dd-96281f2a3655",
      "documentation": "",
      "method": "get",
      "endpoint": "audi/a3/information",
      "responses": [
        {
          "uuid": "23e86b76-4dc0-4a83-bcff-707503c00633",
          "body": "{\n        \"brand\": \"Audi\",\n        \"model\": \"A3\",\n        \"colour\": \"red\",\n        \"numberOfDoors\": \"2/3\",\n        \"bodyType\": \"sport\",\n        \"id\": 2\n    }",
          "latency": 0,
          "statusCode": 200,
          "label": "",
          "headers": [
            {
              "key": "Content-Type",
              "value": "application/json"
            }
          ],
          "filePath": "",
          "sendFileAsBody": false,
          "rules": [],
          "rulesOperator": "OR",
          "disableTemplating": false,
          "fallbackTo404": false
        }
      ],
      "enabled": true,
      "randomResponse": false,
      "sequentialResponse": false
    },
    {
      "uuid": "3881decf-0be1-46e8-99e8-d1a0a47c6c5b",
      "documentation": "",
      "method": "get",
      "endpoint": "audi/a4/information",
      "responses": [
        {
          "uuid": "75ebdd28-d7f6-4b7f-846c-5544acb35fec",
          "body": "{\n        \"brand\": \"Audi\",\n        \"model\": \"A4\",\n        \"colour\": \"blue\",\n        \"numberOfDoors\": \"4/5\",\n        \"bodyType\": \"combi\",\n        \"id\": 3\n    }",
          "latency": 0,
          "statusCode": 200,
          "label": "",
          "headers": [
            {
              "key": "Content-Type",
              "value": "application/json"
            }
          ],
          "filePath": "",
          "sendFileAsBody": false,
          "rules": [],
          "rulesOperator": "OR",
          "disableTemplating": false,
          "fallbackTo404": false
        }
      ],
      "enabled": true,
      "randomResponse": false,
      "sequentialResponse": false
    },
    {
      "uuid": "8ea35aa4-0a91-42c0-8fcc-8261b2d21c2c",
      "documentation": "",
      "method": "get",
      "endpoint": "audi/a5/information",
      "responses": [
        {
          "uuid": "053f556c-ee0b-4daa-8848-a8a591cc3f8d",
          "body": "{\n        \"brand\": \"Audi\",\n        \"model\": \"A5\",\n        \"colour\": \"yellow\",\n        \"numberOfDoors\": \"2\",\n        \"bodyType\": \"sport\",\n        \"id\": 4\n    }",
          "latency": 0,
          "statusCode": 200,
          "label": "",
          "headers": [
            {
              "key": "Content-Type",
              "value": "application/json"
            }
          ],
          "filePath": "",
          "sendFileAsBody": false,
          "rules": [],
          "rulesOperator": "OR",
          "disableTemplating": false,
          "fallbackTo404": false
        }
      ],
      "enabled": true,
      "randomResponse": false,
      "sequentialResponse": false
    },
    {
      "uuid": "a05746fa-03b3-4542-9a50-6884537b00c4",
      "documentation": "",
      "method": "get",
      "endpoint": "audi/a6/information",
      "responses": [
        {
          "uuid": "8177b366-76df-4df9-8c9e-961a93e59b15",
          "body": "{\n        \"brand\": \"Audi\",\n        \"model\": \"A6\",\n        \"colour\": \"black\",\n        \"numberOfDoors\": \"4\",\n        \"bodyType\": \"sedan\",\n        \"id\": 5\n    }",
          "latency": 0,
          "statusCode": 200,
          "label": "",
          "headers": [
            {
              "key": "Content-Type",
              "value": "application/json"
            }
          ],
          "filePath": "",
          "sendFileAsBody": false,
          "rules": [],
          "rulesOperator": "OR",
          "disableTemplating": false,
          "fallbackTo404": false
        }
      ],
      "enabled": true,
      "randomResponse": false,
      "sequentialResponse": false
    },
    {
      "uuid": "dfac0e59-8b2d-47bd-9a4e-cf85d0ea3e55",
      "documentation": "",
      "method": "get",
      "endpoint": "audi/a7/information",
      "responses": [
        {
          "uuid": "1668bdba-40a6-45c0-92ab-223214eaa1f3",
          "body": "{\n        \"brand\": \"Audi\",\n        \"model\": \"A7\",\n        \"colour\": \"white\",\n        \"numberOfDoors\": \"4\",\n        \"bodyType\": \"sport\",\n        \"id\": 6\n    }",
          "latency": 0,
          "statusCode": 200,
          "label": "",
          "headers": [
            {
              "key": "Content-Type",
              "value": "application/json"
            }
          ],
          "filePath": "",
          "sendFileAsBody": false,
          "rules": [],
          "rulesOperator": "OR",
          "disableTemplating": false,
          "fallbackTo404": false
        }
      ],
      "enabled": true,
      "randomResponse": false,
      "sequentialResponse": false
    },
    {
      "uuid": "0b5034ec-c86d-4357-8209-f45c08aabab5",
      "documentation": "",
      "method": "get",
      "endpoint": "audi/a8/information",
      "responses": [
        {
          "uuid": "92967593-5048-4358-a8f1-0562f7264bed",
          "body": "{\n        \"brand\": \"Audi\",\n        \"model\": \"A8\",\n        \"colour\": \"black\",\n        \"numberOfDoors\": \"4\",\n        \"bodyType\": \"sedan\",\n        \"id\": 7\n    }",
          "latency": 0,
          "statusCode": 200,
          "label": "",
          "headers": [
            {
              "key": "Content-Type",
              "value": "application/json"
            }
          ],
          "filePath": "",
          "sendFileAsBody": false,
          "rules": [],
          "rulesOperator": "OR",
          "disableTemplating": false,
          "fallbackTo404": false
        }
      ],
      "enabled": true,
      "randomResponse": false,
      "sequentialResponse": false
    },
    {
      "uuid": "a5d5da69-3f8e-4a22-8686-a992251250b2",
      "documentation": "",
      "method": "get",
      "endpoint": "audi/e-tron/information",
      "responses": [
        {
          "uuid": "3ee0a542-e23c-4845-b3cb-ff395ccd7ea7",
          "body": "{\n        \"brand\": \"Audi\",\n        \"model\": \"e-tron\",\n        \"colour\": \"black\",\n        \"numberOfDoors\": \"4\",\n        \"bodyType\": \"electric\",\n        \"id\": 8\n    }",
          "latency": 0,
          "statusCode": 200,
          "label": "",
          "headers": [
            {
              "key": "Content-Type",
              "value": "application/json"
            }
          ],
          "filePath": "",
          "sendFileAsBody": false,
          "rules": [],
          "rulesOperator": "OR",
          "disableTemplating": false,
          "fallbackTo404": false
        }
      ],
      "enabled": true,
      "randomResponse": false,
      "sequentialResponse": false
    }
  ],
  "proxyMode": false,
  "proxyHost": "",
  "proxyRemovePrefix": false,
  "tlsOptions": {
    "enabled": false,
    "type": "CERT",
    "pfxPath": "",
    "certPath": "",
    "keyPath": "",
    "caPath": "",
    "passphrase": ""
  },
  "cors": true,
  "headers": [
    {
      "key": "Content-Type",
      "value": "application/json"
    }
  ],
  "proxyReqHeaders": [
    {
      "key": "",
      "value": ""
    }
  ],
  "proxyResHeaders": [
    {
      "key": "",
      "value": ""
    }
  ]
}